launch_status failed=2 1578071701000000000
launch_status broken=0 1578071701000000000
launch_status passed=0 1578071701000000000
launch_status skipped=0 1578071701000000000
launch_status unknown=0 1578071701000000000
launch_time duration=1975 1578071701000000000
launch_time min_duration=379 1578071701000000000
launch_time max_duration=1492 1578071701000000000
launch_time sum_duration=1871 1578071701000000000
launch_problems product_defects=2 1578071701000000000
launch_retries retries=0 1578071701000000000
launch_retries run=2 1578071701000000000
