"Epic","Feature","Story","FAILED","BROKEN","PASSED","SKIPPED","UNKNOWN"
"Data Integrity","Columns Data Type Verification For STAGING","Column Data Type Validation","0","0","12","0","0"
"Data Integrity","Columns Length Verification For STAGING","Column Length Validation","1","0","11","0","0"
"","Not Null Columns Verification for STAGING","","0","0","9","0","0"
