{
  "uid" : "4b4757e66a1912dae1a509f688f20b0f",
  "name" : "categories",
  "children" : [ {
    "name" : "Product defects",
    "children" : [ {
      "name" : "AssertionError: Test Failed : [ Expected Length 16 != Actual length 17\nassert False == True",
      "children" : [ {
        "name" : "Length Validation For Column staging_customer_202001031052.phone",
        "uid" : "537da15662261d8c",
        "parentUid" : "3e98d741776997e9839f3b2619ca050a",
        "status" : "failed",
        "time" : {
          "start" : 1581406721529,
          "stop" : 1581406729685,
          "duration" : 8156
        },
        "flaky" : false,
        "newFailed" : false,
        "parameters" : [ "'customer.phone.15'" ]
      } ],
      "uid" : "3e98d741776997e9839f3b2619ca050a"
    } ],
    "uid" : "8fb3a91ba5aaf9de24cc8a92edc82b5d"
  } ]
}