{
  "uid" : "83edc06c07f9ae9e47eb6dd1b683e4e2",
  "name" : "packages",
  "children" : [ {
    "name" : "test_cases.sch_evo_architecture_based_test_cases.data_integrity_test_cases.test_column_validation",
    "children" : [ {
      "name" : "Not Null Validation for Column staging_customer_202001031052.op",
      "uid" : "d62c8eb15a52bd",
      "parentUid" : "fae1b82fbe58b0950c20b79f4dfe02e0",
      "status" : "passed",
      "time" : {
        "start" : 1581406567590,
        "stop" : 1581406595331,
        "duration" : 27741
      },
      "flaky" : false,
      "newFailed" : false,
      "parameters" : [ "'customer.op'" ]
    }, {
      "name" : "Not Null Validation for Column staging_customer_202001031052.id",
      "uid" : "109bf9910d2abb58",
      "parentUid" : "fae1b82fbe58b0950c20b79f4dfe02e0",
      "status" : "passed",
      "time" : {
        "start" : 1581406595338,
        "stop" : 1581406603515,
        "duration" : 8177
      },
      "flaky" : false,
      "newFailed" : false,
      "parameters" : [ "'customer.id'" ]
    }, {
      "name" : "Not Null Validation for Column staging_customer_202001031052.firstname",
      "uid" : "f9a2121949cce198",
      "parentUid" : "fae1b82fbe58b0950c20b79f4dfe02e0",
      "status" : "passed",
      "time" : {
        "start" : 1581406603532,
        "stop" : 1581406612041,
        "duration" : 8509
      },
      "flaky" : false,
      "newFailed" : false,
      "parameters" : [ "'customer.firstname'" ]
    }, {
      "name" : "Not Null Validation for Column staging_customer_202001031052.country",
      "uid" : "58c6487dcb614241",
      "parentUid" : "fae1b82fbe58b0950c20b79f4dfe02e0",
      "status" : "passed",
      "time" : {
        "start" : 1581406612063,
        "stop" : 1581406621472,
        "duration" : 9409
      },
      "flaky" : false,
      "newFailed" : false,
      "parameters" : [ "'customer.country'" ]
    }, {
      "name" : "Not Null Validation for Column staging_customer_202001031052.phone",
      "uid" : "bfd4eac9473e01d6",
      "parentUid" : "fae1b82fbe58b0950c20b79f4dfe02e0",
      "status" : "passed",
      "time" : {
        "start" : 1581406621479,
        "stop" : 1581406630368,
        "duration" : 8889
      },
      "flaky" : false,
      "newFailed" : false,
      "parameters" : [ "'customer.phone'" ]
    }, {
      "name" : "Not Null Validation for Column staging_customer_202001031052.updated_at",
      "uid" : "c72e1ba0e68049b7",
      "parentUid" : "fae1b82fbe58b0950c20b79f4dfe02e0",
      "status" : "passed",
      "time" : {
        "start" : 1581406630381,
        "stop" : 1581406639118,
        "duration" : 8737
      },
      "flaky" : false,
      "newFailed" : false,
      "parameters" : [ "'customer.updated_at'" ]
    }, {
      "name" : "Not Null Validation for Column staging_customer_202001031052.dateofbirth",
      "uid" : "90dcd6d653cb9742",
      "parentUid" : "fae1b82fbe58b0950c20b79f4dfe02e0",
      "status" : "passed",
      "time" : {
        "start" : 1581406639125,
        "stop" : 1581406647676,
        "duration" : 8551
      },
      "flaky" : false,
      "newFailed" : false,
      "parameters" : [ "'customer.dateofbirth'" ]
    }, {
      "name" : "Not Null Validation for Column staging_customer_202001031052.created_at",
      "uid" : "696007caa39b3920",
      "parentUid" : "fae1b82fbe58b0950c20b79f4dfe02e0",
      "status" : "passed",
      "time" : {
        "start" : 1581406647681,
        "stop" : 1581406655948,
        "duration" : 8267
      },
      "flaky" : false,
      "newFailed" : false,
      "parameters" : [ "'customer.created_at'" ]
    }, {
      "name" : "Not Null Validation for Column staging_customer_202001031052.timestamp",
      "uid" : "935dd34ec81ee003",
      "parentUid" : "fae1b82fbe58b0950c20b79f4dfe02e0",
      "status" : "passed",
      "time" : {
        "start" : 1581406655954,
        "stop" : 1581406664147,
        "duration" : 8193
      },
      "flaky" : false,
      "newFailed" : false,
      "parameters" : [ "'customer.timestamp'" ]
    }, {
      "name" : "Length Validation For Column staging_customer_202001031052.op",
      "uid" : "a1e323068499b8cc",
      "parentUid" : "fae1b82fbe58b0950c20b79f4dfe02e0",
      "status" : "passed",
      "time" : {
        "start" : 1581406664155,
        "stop" : 1581406672373,
        "duration" : 8218
      },
      "flaky" : false,
      "newFailed" : false,
      "parameters" : [ "'customer.op.1'" ]
    }, {
      "name" : "Length Validation For Column staging_customer_202001031052.timestamp",
      "uid" : "cabdf00ca1b47765",
      "parentUid" : "fae1b82fbe58b0950c20b79f4dfe02e0",
      "status" : "passed",
      "time" : {
        "start" : 1581406672381,
        "stop" : 1581406680426,
        "duration" : 8045
      },
      "flaky" : false,
      "newFailed" : false,
      "parameters" : [ "'customer.timestamp.26'" ]
    }, {
      "name" : "Length Validation For Column staging_customer_202001031052.id",
      "uid" : "fd34bf37e44ecf0f",
      "parentUid" : "fae1b82fbe58b0950c20b79f4dfe02e0",
      "status" : "passed",
      "time" : {
        "start" : 1581406680433,
        "stop" : 1581406688783,
        "duration" : 8350
      },
      "flaky" : false,
      "newFailed" : false,
      "parameters" : [ "'customer.id.10'" ]
    }, {
      "name" : "Length Validation For Column staging_customer_202001031052.firstname",
      "uid" : "1c81fa868fa2e060",
      "parentUid" : "fae1b82fbe58b0950c20b79f4dfe02e0",
      "status" : "passed",
      "time" : {
        "start" : 1581406688794,
        "stop" : 1581406696916,
        "duration" : 8122
      },
      "flaky" : false,
      "newFailed" : false,
      "parameters" : [ "'customer.firstname.26'" ]
    }, {
      "name" : "Length Validation For Column staging_customer_202001031052.lastname",
      "uid" : "a223076ee5c4691c",
      "parentUid" : "fae1b82fbe58b0950c20b79f4dfe02e0",
      "status" : "passed",
      "time" : {
        "start" : 1581406696923,
        "stop" : 1581406705051,
        "duration" : 8128
      },
      "flaky" : false,
      "newFailed" : false,
      "parameters" : [ "'customer.lastname.26'" ]
    }, {
      "name" : "Length Validation For Column staging_customer_202001031052.city",
      "uid" : "8ec87bc688dfcd14",
      "parentUid" : "fae1b82fbe58b0950c20b79f4dfe02e0",
      "status" : "passed",
      "time" : {
        "start" : 1581406705059,
        "stop" : 1581406713103,
        "duration" : 8044
      },
      "flaky" : false,
      "newFailed" : false,
      "parameters" : [ "'customer.city.26'" ]
    }, {
      "name" : "Length Validation For Column staging_customer_202001031052.country",
      "uid" : "481ab3f64d5a9798",
      "parentUid" : "fae1b82fbe58b0950c20b79f4dfe02e0",
      "status" : "passed",
      "time" : {
        "start" : 1581406713136,
        "stop" : 1581406721517,
        "duration" : 8381
      },
      "flaky" : false,
      "newFailed" : false,
      "parameters" : [ "'customer.country.26'" ]
    }, {
      "name" : "Length Validation For Column staging_customer_202001031052.phone",
      "uid" : "537da15662261d8c",
      "parentUid" : "fae1b82fbe58b0950c20b79f4dfe02e0",
      "status" : "failed",
      "time" : {
        "start" : 1581406721529,
        "stop" : 1581406729685,
        "duration" : 8156
      },
      "flaky" : false,
      "newFailed" : false,
      "parameters" : [ "'customer.phone.15'" ]
    }, {
      "name" : "Length Validation For Column staging_customer_202001031052.dateofbirth",
      "uid" : "5f6b5221b0f52f00",
      "parentUid" : "fae1b82fbe58b0950c20b79f4dfe02e0",
      "status" : "passed",
      "time" : {
        "start" : 1581406729890,
        "stop" : 1581406738165,
        "duration" : 8275
      },
      "flaky" : false,
      "newFailed" : false,
      "parameters" : [ "'customer.dateofbirth.26'" ]
    }, {
      "name" : "Length Validation For Column staging_customer_202001031052.age",
      "uid" : "cb070d3b3f312d7b",
      "parentUid" : "fae1b82fbe58b0950c20b79f4dfe02e0",
      "status" : "passed",
      "time" : {
        "start" : 1581406738172,
        "stop" : 1581406746470,
        "duration" : 8298
      },
      "flaky" : false,
      "newFailed" : false,
      "parameters" : [ "'customer.age.3'" ]
    }, {
      "name" : "Length Validation For Column staging_customer_202001031052.created_at",
      "uid" : "d92aa1f8d1a435a6",
      "parentUid" : "fae1b82fbe58b0950c20b79f4dfe02e0",
      "status" : "passed",
      "time" : {
        "start" : 1581406746477,
        "stop" : 1581406754864,
        "duration" : 8387
      },
      "flaky" : false,
      "newFailed" : false,
      "parameters" : [ "'customer.created_at.26'" ]
    }, {
      "name" : "Length Validation For Column staging_customer_202001031052.updated_at",
      "uid" : "cb6b746ef6d20cda",
      "parentUid" : "fae1b82fbe58b0950c20b79f4dfe02e0",
      "status" : "passed",
      "time" : {
        "start" : 1581406754871,
        "stop" : 1581406763047,
        "duration" : 8176
      },
      "flaky" : false,
      "newFailed" : false,
      "parameters" : [ "'customer.updated_at.26'" ]
    }, {
      "name" : "Data Type Validation For Column staging_customer_202001031052.op",
      "uid" : "24e6e11345db9038",
      "parentUid" : "fae1b82fbe58b0950c20b79f4dfe02e0",
      "status" : "passed",
      "time" : {
        "start" : 1581406763062,
        "stop" : 1581406766812,
        "duration" : 3750
      },
      "flaky" : false,
      "newFailed" : false,
      "parameters" : [ "'customer.op.string'" ]
    }, {
      "name" : "Data Type Validation For Column staging_customer_202001031052.timestamp",
      "uid" : "ddaa7d664029fbda",
      "parentUid" : "fae1b82fbe58b0950c20b79f4dfe02e0",
      "status" : "passed",
      "time" : {
        "start" : 1581406766836,
        "stop" : 1581406769836,
        "duration" : 3000
      },
      "flaky" : false,
      "newFailed" : false,
      "parameters" : [ "'customer.timestamp.string'" ]
    }, {
      "name" : "Data Type Validation For Column staging_customer_202001031052.id",
      "uid" : "22a462b6f6d763b0",
      "parentUid" : "fae1b82fbe58b0950c20b79f4dfe02e0",
      "status" : "passed",
      "time" : {
        "start" : 1581406769862,
        "stop" : 1581406772882,
        "duration" : 3020
      },
      "flaky" : false,
      "newFailed" : false,
      "parameters" : [ "'customer.id.string'" ]
    }, {
      "name" : "Data Type Validation For Column staging_customer_202001031052.firstname",
      "uid" : "8ac0312d5adcff07",
      "parentUid" : "fae1b82fbe58b0950c20b79f4dfe02e0",
      "status" : "passed",
      "time" : {
        "start" : 1581406772899,
        "stop" : 1581406775903,
        "duration" : 3004
      },
      "flaky" : false,
      "newFailed" : false,
      "parameters" : [ "'customer.firstname.string'" ]
    }, {
      "name" : "Data Type Validation For Column staging_customer_202001031052.lastname",
      "uid" : "cce15e647278e3d1",
      "parentUid" : "fae1b82fbe58b0950c20b79f4dfe02e0",
      "status" : "passed",
      "time" : {
        "start" : 1581406775913,
        "stop" : 1581406778914,
        "duration" : 3001
      },
      "flaky" : false,
      "newFailed" : false,
      "parameters" : [ "'customer.lastname.string'" ]
    }, {
      "name" : "Data Type Validation For Column staging_customer_202001031052.city",
      "uid" : "9dc20b82674bd19",
      "parentUid" : "fae1b82fbe58b0950c20b79f4dfe02e0",
      "status" : "passed",
      "time" : {
        "start" : 1581406778921,
        "stop" : 1581406781912,
        "duration" : 2991
      },
      "flaky" : false,
      "newFailed" : false,
      "parameters" : [ "'customer.city.string'" ]
    }, {
      "name" : "Data Type Validation For Column staging_customer_202001031052.country",
      "uid" : "f8300d75a3cfdc1b",
      "parentUid" : "fae1b82fbe58b0950c20b79f4dfe02e0",
      "status" : "passed",
      "time" : {
        "start" : 1581406781926,
        "stop" : 1581406784910,
        "duration" : 2984
      },
      "flaky" : false,
      "newFailed" : false,
      "parameters" : [ "'customer.country.string'" ]
    }, {
      "name" : "Data Type Validation For Column staging_customer_202001031052.phone",
      "uid" : "797879c0a355e55c",
      "parentUid" : "fae1b82fbe58b0950c20b79f4dfe02e0",
      "status" : "passed",
      "time" : {
        "start" : 1581406784921,
        "stop" : 1581406787919,
        "duration" : 2998
      },
      "flaky" : false,
      "newFailed" : false,
      "parameters" : [ "'customer.phone.string'" ]
    }, {
      "name" : "Data Type Validation For Column staging_customer_202001031052.dateofbirth",
      "uid" : "f056feb5a742f505",
      "parentUid" : "fae1b82fbe58b0950c20b79f4dfe02e0",
      "status" : "passed",
      "time" : {
        "start" : 1581406787936,
        "stop" : 1581406790928,
        "duration" : 2992
      },
      "flaky" : false,
      "newFailed" : false,
      "parameters" : [ "'customer.dateofbirth.string'" ]
    }, {
      "name" : "Data Type Validation For Column staging_customer_202001031052.age",
      "uid" : "89a73f0e037d2768",
      "parentUid" : "fae1b82fbe58b0950c20b79f4dfe02e0",
      "status" : "passed",
      "time" : {
        "start" : 1581406790935,
        "stop" : 1581406793918,
        "duration" : 2983
      },
      "flaky" : false,
      "newFailed" : false,
      "parameters" : [ "'customer.age.string'" ]
    }, {
      "name" : "Data Type Validation For Column staging_customer_202001031052.created_at",
      "uid" : "84e5e38af37d7832",
      "parentUid" : "fae1b82fbe58b0950c20b79f4dfe02e0",
      "status" : "passed",
      "time" : {
        "start" : 1581406793932,
        "stop" : 1581406796928,
        "duration" : 2996
      },
      "flaky" : false,
      "newFailed" : false,
      "parameters" : [ "'customer.created_at.string'" ]
    }, {
      "name" : "Data Type Validation For Column staging_customer_202001031052.updated_at",
      "uid" : "1952a6f3fc151ae5",
      "parentUid" : "fae1b82fbe58b0950c20b79f4dfe02e0",
      "status" : "passed",
      "time" : {
        "start" : 1581406796935,
        "stop" : 1581406799928,
        "duration" : 2993
      },
      "flaky" : false,
      "newFailed" : false,
      "parameters" : [ "'customer.updated_at.string'" ]
    } ],
    "uid" : "test_cases.sch_evo_architecture_based_test_cases.data_integrity_test_cases.test_column_validation"
  } ]
}