{
  "f2d2bcd74435924b414e204dde3f83a1" : {
    "statistic" : {
      "failed" : 0,
      "broken" : 0,
      "skipped" : 0,
      "passed" : 1,
      "unknown" : 0,
      "total" : 1
    },
    "items" : [ {
      "uid" : "5f6b5221b0f52f00",
      "status" : "passed",
      "time" : {
        "start" : 1581406729890,
        "stop" : 1581406738165,
        "duration" : 8275
      }
    } ]
  },
  "394569234f4494565d79e700d84a6b36" : {
    "statistic" : {
      "failed" : 0,
      "broken" : 0,
      "skipped" : 0,
      "passed" : 1,
      "unknown" : 0,
      "total" : 1
    },
    "items" : [ {
      "uid" : "f056feb5a742f505",
      "status" : "passed",
      "time" : {
        "start" : 1581406787936,
        "stop" : 1581406790928,
        "duration" : 2992
      }
    } ]
  },
  "092131b752a6752bfacf9ec822aad198" : {
    "statistic" : {
      "failed" : 0,
      "broken" : 0,
      "skipped" : 0,
      "passed" : 1,
      "unknown" : 0,
      "total" : 1
    },
    "items" : [ {
      "uid" : "89a73f0e037d2768",
      "status" : "passed",
      "time" : {
        "start" : 1581406790935,
        "stop" : 1581406793918,
        "duration" : 2983
      }
    } ]
  },
  "34ea8c637e2d7c50692e63e5ef611140" : {
    "statistic" : {
      "failed" : 0,
      "broken" : 0,
      "skipped" : 0,
      "passed" : 1,
      "unknown" : 0,
      "total" : 1
    },
    "items" : [ {
      "uid" : "cce15e647278e3d1",
      "status" : "passed",
      "time" : {
        "start" : 1581406775913,
        "stop" : 1581406778914,
        "duration" : 3001
      }
    } ]
  },
  "5cbc2b487245e20e8978e1845d56f959" : {
    "statistic" : {
      "failed" : 0,
      "broken" : 0,
      "skipped" : 0,
      "passed" : 1,
      "unknown" : 0,
      "total" : 1
    },
    "items" : [ {
      "uid" : "d92aa1f8d1a435a6",
      "status" : "passed",
      "time" : {
        "start" : 1581406746477,
        "stop" : 1581406754864,
        "duration" : 8387
      }
    } ]
  },
  "00bc3ff71ef7dfeb3c516b7a00984711" : {
    "statistic" : {
      "failed" : 0,
      "broken" : 0,
      "skipped" : 0,
      "passed" : 1,
      "unknown" : 0,
      "total" : 1
    },
    "items" : [ {
      "uid" : "9dc20b82674bd19",
      "status" : "passed",
      "time" : {
        "start" : 1581406778921,
        "stop" : 1581406781912,
        "duration" : 2991
      }
    } ]
  },
  "500a7cbb39372318078c68c7737bf2bc" : {
    "statistic" : {
      "failed" : 0,
      "broken" : 0,
      "skipped" : 0,
      "passed" : 1,
      "unknown" : 0,
      "total" : 1
    },
    "items" : [ {
      "uid" : "a223076ee5c4691c",
      "status" : "passed",
      "time" : {
        "start" : 1581406696923,
        "stop" : 1581406705051,
        "duration" : 8128
      }
    } ]
  },
  "3f62e88c5d6ec7ced380fdc18e2d639c" : {
    "statistic" : {
      "failed" : 0,
      "broken" : 0,
      "skipped" : 0,
      "passed" : 1,
      "unknown" : 0,
      "total" : 1
    },
    "items" : [ {
      "uid" : "8ac0312d5adcff07",
      "status" : "passed",
      "time" : {
        "start" : 1581406772899,
        "stop" : 1581406775903,
        "duration" : 3004
      }
    } ]
  },
  "cf0fea2b32dfe4cdcef75fcd8075f7ef" : {
    "statistic" : {
      "failed" : 0,
      "broken" : 0,
      "skipped" : 0,
      "passed" : 1,
      "unknown" : 0,
      "total" : 1
    },
    "items" : [ {
      "uid" : "90dcd6d653cb9742",
      "status" : "passed",
      "time" : {
        "start" : 1581406639125,
        "stop" : 1581406647676,
        "duration" : 8551
      }
    } ]
  },
  "38346bb4974563ab76b2c7f999bdeb1d" : {
    "statistic" : {
      "failed" : 0,
      "broken" : 0,
      "skipped" : 0,
      "passed" : 1,
      "unknown" : 0,
      "total" : 1
    },
    "items" : [ {
      "uid" : "58c6487dcb614241",
      "status" : "passed",
      "time" : {
        "start" : 1581406612063,
        "stop" : 1581406621472,
        "duration" : 9409
      }
    } ]
  },
  "a776dc52a6df19ca049af3f8ccbe073c" : {
    "statistic" : {
      "failed" : 0,
      "broken" : 0,
      "skipped" : 0,
      "passed" : 1,
      "unknown" : 0,
      "total" : 1
    },
    "items" : [ {
      "uid" : "797879c0a355e55c",
      "status" : "passed",
      "time" : {
        "start" : 1581406784921,
        "stop" : 1581406787919,
        "duration" : 2998
      }
    } ]
  },
  "257a7e3ed2f754ce80f03034ea7bbbef" : {
    "statistic" : {
      "failed" : 0,
      "broken" : 0,
      "skipped" : 0,
      "passed" : 1,
      "unknown" : 0,
      "total" : 1
    },
    "items" : [ {
      "uid" : "24e6e11345db9038",
      "status" : "passed",
      "time" : {
        "start" : 1581406763062,
        "stop" : 1581406766812,
        "duration" : 3750
      }
    } ]
  },
  "3b8d9b3d45d5b688e285488c94eb981f" : {
    "statistic" : {
      "failed" : 0,
      "broken" : 0,
      "skipped" : 0,
      "passed" : 1,
      "unknown" : 0,
      "total" : 1
    },
    "items" : [ {
      "uid" : "481ab3f64d5a9798",
      "status" : "passed",
      "time" : {
        "start" : 1581406713136,
        "stop" : 1581406721517,
        "duration" : 8381
      }
    } ]
  },
  "ef1955396b19b3c22e1f303366c1a75b" : {
    "statistic" : {
      "failed" : 0,
      "broken" : 0,
      "skipped" : 0,
      "passed" : 1,
      "unknown" : 0,
      "total" : 1
    },
    "items" : [ {
      "uid" : "8ec87bc688dfcd14",
      "status" : "passed",
      "time" : {
        "start" : 1581406705059,
        "stop" : 1581406713103,
        "duration" : 8044
      }
    } ]
  },
  "98705f71a617ad640e37bf6a56672fba" : {
    "statistic" : {
      "failed" : 0,
      "broken" : 0,
      "skipped" : 0,
      "passed" : 1,
      "unknown" : 0,
      "total" : 1
    },
    "items" : [ {
      "uid" : "a1e323068499b8cc",
      "status" : "passed",
      "time" : {
        "start" : 1581406664155,
        "stop" : 1581406672373,
        "duration" : 8218
      }
    } ]
  },
  "811d2ef8922c3848e091cbf9a1952c58" : {
    "statistic" : {
      "failed" : 0,
      "broken" : 0,
      "skipped" : 0,
      "passed" : 1,
      "unknown" : 0,
      "total" : 1
    },
    "items" : [ {
      "uid" : "cabdf00ca1b47765",
      "status" : "passed",
      "time" : {
        "start" : 1581406672381,
        "stop" : 1581406680426,
        "duration" : 8045
      }
    } ]
  },
  "cb97762907fe40065116e242b826b4f4" : {
    "statistic" : {
      "failed" : 0,
      "broken" : 0,
      "skipped" : 0,
      "passed" : 1,
      "unknown" : 0,
      "total" : 1
    },
    "items" : [ {
      "uid" : "935dd34ec81ee003",
      "status" : "passed",
      "time" : {
        "start" : 1581406655954,
        "stop" : 1581406664147,
        "duration" : 8193
      }
    } ]
  },
  "950f07827db8d1f5ccb1387730341fc0" : {
    "statistic" : {
      "failed" : 0,
      "broken" : 0,
      "skipped" : 0,
      "passed" : 1,
      "unknown" : 0,
      "total" : 1
    },
    "items" : [ {
      "uid" : "d62c8eb15a52bd",
      "status" : "passed",
      "time" : {
        "start" : 1581406567590,
        "stop" : 1581406595331,
        "duration" : 27741
      }
    } ]
  },
  "9a52d71f0aee4ff325236f403b82a23a" : {
    "statistic" : {
      "failed" : 0,
      "broken" : 0,
      "skipped" : 0,
      "passed" : 1,
      "unknown" : 0,
      "total" : 1
    },
    "items" : [ {
      "uid" : "cb070d3b3f312d7b",
      "status" : "passed",
      "time" : {
        "start" : 1581406738172,
        "stop" : 1581406746470,
        "duration" : 8298
      }
    } ]
  },
  "a5d8957e115ccfbcff08fee67e6288b2" : {
    "statistic" : {
      "failed" : 0,
      "broken" : 0,
      "skipped" : 0,
      "passed" : 1,
      "unknown" : 0,
      "total" : 1
    },
    "items" : [ {
      "uid" : "cb6b746ef6d20cda",
      "status" : "passed",
      "time" : {
        "start" : 1581406754871,
        "stop" : 1581406763047,
        "duration" : 8176
      }
    } ]
  },
  "f4a2cbc2a632cdb1368ce7228349e4a6" : {
    "statistic" : {
      "failed" : 0,
      "broken" : 0,
      "skipped" : 0,
      "passed" : 1,
      "unknown" : 0,
      "total" : 1
    },
    "items" : [ {
      "uid" : "f8300d75a3cfdc1b",
      "status" : "passed",
      "time" : {
        "start" : 1581406781926,
        "stop" : 1581406784910,
        "duration" : 2984
      }
    } ]
  },
  "9252e2758c407542bf2530c644c232f9" : {
    "statistic" : {
      "failed" : 0,
      "broken" : 0,
      "skipped" : 0,
      "passed" : 1,
      "unknown" : 0,
      "total" : 1
    },
    "items" : [ {
      "uid" : "1c81fa868fa2e060",
      "status" : "passed",
      "time" : {
        "start" : 1581406688794,
        "stop" : 1581406696916,
        "duration" : 8122
      }
    } ]
  },
  "58683973b47d434ef67fab7602ca4e92" : {
    "statistic" : {
      "failed" : 1,
      "broken" : 0,
      "skipped" : 0,
      "passed" : 0,
      "unknown" : 0,
      "total" : 1
    },
    "items" : [ {
      "uid" : "537da15662261d8c",
      "status" : "failed",
      "statusDetails" : "AssertionError: Test Failed : [ Expected Length 16 != Actual length 17\nassert False == True",
      "time" : {
        "start" : 1581406721529,
        "stop" : 1581406729685,
        "duration" : 8156
      }
    } ]
  },
  "24cac79f09d81aa027c2a929134ca955" : {
    "statistic" : {
      "failed" : 0,
      "broken" : 0,
      "skipped" : 0,
      "passed" : 1,
      "unknown" : 0,
      "total" : 1
    },
    "items" : [ {
      "uid" : "ddaa7d664029fbda",
      "status" : "passed",
      "time" : {
        "start" : 1581406766836,
        "stop" : 1581406769836,
        "duration" : 3000
      }
    } ]
  },
  "4a6ae4d58233f788ff66fa81ab01eb51" : {
    "statistic" : {
      "failed" : 0,
      "broken" : 0,
      "skipped" : 0,
      "passed" : 1,
      "unknown" : 0,
      "total" : 1
    },
    "items" : [ {
      "uid" : "22a462b6f6d763b0",
      "status" : "passed",
      "time" : {
        "start" : 1581406769862,
        "stop" : 1581406772882,
        "duration" : 3020
      }
    } ]
  },
  "57b5b253734570c434f3162e66f5d75c" : {
    "statistic" : {
      "failed" : 0,
      "broken" : 0,
      "skipped" : 0,
      "passed" : 1,
      "unknown" : 0,
      "total" : 1
    },
    "items" : [ {
      "uid" : "109bf9910d2abb58",
      "status" : "passed",
      "time" : {
        "start" : 1581406595338,
        "stop" : 1581406603515,
        "duration" : 8177
      }
    } ]
  },
  "df30b9e5fe4daf10f7edb3f988e8f1fc" : {
    "statistic" : {
      "failed" : 0,
      "broken" : 0,
      "skipped" : 0,
      "passed" : 1,
      "unknown" : 0,
      "total" : 1
    },
    "items" : [ {
      "uid" : "696007caa39b3920",
      "status" : "passed",
      "time" : {
        "start" : 1581406647681,
        "stop" : 1581406655948,
        "duration" : 8267
      }
    } ]
  },
  "ef625d8e63b1c17c1b8849ccc60fec9d" : {
    "statistic" : {
      "failed" : 0,
      "broken" : 0,
      "skipped" : 0,
      "passed" : 1,
      "unknown" : 0,
      "total" : 1
    },
    "items" : [ {
      "uid" : "1952a6f3fc151ae5",
      "status" : "passed",
      "time" : {
        "start" : 1581406796935,
        "stop" : 1581406799928,
        "duration" : 2993
      }
    } ]
  },
  "733feea2da54ece6e53f2383b5bda3c2" : {
    "statistic" : {
      "failed" : 0,
      "broken" : 0,
      "skipped" : 0,
      "passed" : 1,
      "unknown" : 0,
      "total" : 1
    },
    "items" : [ {
      "uid" : "c72e1ba0e68049b7",
      "status" : "passed",
      "time" : {
        "start" : 1581406630381,
        "stop" : 1581406639118,
        "duration" : 8737
      }
    } ]
  },
  "aa48f5f4e2692e1f09a367268646f642" : {
    "statistic" : {
      "failed" : 0,
      "broken" : 0,
      "skipped" : 0,
      "passed" : 1,
      "unknown" : 0,
      "total" : 1
    },
    "items" : [ {
      "uid" : "84e5e38af37d7832",
      "status" : "passed",
      "time" : {
        "start" : 1581406793932,
        "stop" : 1581406796928,
        "duration" : 2996
      }
    } ]
  },
  "c6b10df25c1d90ad3141f640689f5005" : {
    "statistic" : {
      "failed" : 0,
      "broken" : 0,
      "skipped" : 0,
      "passed" : 1,
      "unknown" : 0,
      "total" : 1
    },
    "items" : [ {
      "uid" : "fd34bf37e44ecf0f",
      "status" : "passed",
      "time" : {
        "start" : 1581406680433,
        "stop" : 1581406688783,
        "duration" : 8350
      }
    } ]
  },
  "e229a845a0b7e9a82374a6f63efa0d75" : {
    "statistic" : {
      "failed" : 0,
      "broken" : 0,
      "skipped" : 0,
      "passed" : 1,
      "unknown" : 0,
      "total" : 1
    },
    "items" : [ {
      "uid" : "bfd4eac9473e01d6",
      "status" : "passed",
      "time" : {
        "start" : 1581406621479,
        "stop" : 1581406630368,
        "duration" : 8889
      }
    } ]
  },
  "0d4d4ff27e2d3637731b53e9230cf78f" : {
    "statistic" : {
      "failed" : 0,
      "broken" : 0,
      "skipped" : 0,
      "passed" : 1,
      "unknown" : 0,
      "total" : 1
    },
    "items" : [ {
      "uid" : "f9a2121949cce198",
      "status" : "passed",
      "time" : {
        "start" : 1581406603532,
        "stop" : 1581406612041,
        "duration" : 8509
      }
    } ]
  }
}