
column_nullable_validation(self, resultant_table, resultant_db, column_name ):
SQL Query  SELECT COUNT("MODIFIED_BY") AS count FROM "staging_test_db"."staging_ANALYSIS_UNIT_PUB_ISSUE_202001030900" WHERE "MODIFIED_BY" IS NULL;
   count
0      0
