{
	"ac_logs_catalog": {
		"timestamp": "bigint",
		"date": "bigint",
		"hostname": "string",
		"username": "string",
		"level": "string",
		"thread": "string",
		"loggername": "string",
		"message": "string",
		"job-id": "string",
		"throwable": "string",
		"device-id": "string"
	},
	"scan_logs_catalog": {
		"date": "string",
		"time": "string",
		"pid": "string",
		"level": "string",
		"loggername": "string",
		"thread": "string",
		"log": "string",
		"job_id": "string",
		"run_id": "string"
	},
	"flaw_logs_catalog": {
		"jobid": "string",
		"runverid": "string",
		"totalnumberofflaws": "string",
		"startindex": "string",
		"flawdescription": "string",
		"flawremediation": "string",
		"found": "string",
		"host": "string",
		"id": "string",
		"injectedarg": "string",
		"insecure": "boolean",
		"method": "string",
		"originalarg": "string",
		"paramdescription": "string",
		"paramname": "string",
		"paramtype": "string",
		"path": "string",
		"plugin": "string",
		"port": "string",
		"rawevent": "string",
		"referrerurl": "string",
		"secure": "boolean",
		"vcid": "string"
	},
	"dim_ac_logs_catalog": {
		"ac_timestamp": "bigint",
		"ac_date": "bigint",
		"hostname": "string",
		"username": "string",
		"level": "string",
		"thread": "string",
		"loggername": "string",
		"message": "string",
		"job_id": "string",
		"throwable": "string",
		"device-id": "string",
		"device_group_id": "string",
		"external_device_id": "string",
		"epoch": "int"
	},
	"dim_scan_logs_catalog": {
		"date": "string",
		"time": "string",
		"pid": "string",
		"level": "string",
		"loggername": "string",
		"thread": "string",
		"log": "string",
		"job_id": "string",
		"run_id": "string",
		"epoch": "int"
	},
	"dim_flaw_logs_catalog": {
		"jobid": "string",
		"runverid": "string",
		"totalnumberofflaws": "string",
		"startindex": "string",
		"flawdescription": "string",
		"flawremediation": "string",
		"found": "string",
		"host": "string",
		"id": "string",
		"injectedarg": "string",
		"insecure": "boolean",
		"method": "string",
		"originalarg": "string",
		"paramdescription": "string",
		"paramname": "string",
		"paramtype": "string",
		"path": "string",
		"plugin": "string",
		"port": "string",
		"rawevent": "string",
		"referrerurl": "string",
		"secure": "boolean",
		"vcid": "string",
		"epoch": "int"
	},
	"dim_account_catalog": {
		"account_key": "string", 
		"org_id": "string",
		"org_name": "string",
		"org_type": "string",
		"org_status": "string",
		"modify_ts": "string",
		"insert_ts": "string",
		"sales_lead_email": "string",
		"sales_lead_name": "string",
		"saml_enabled": "string",
		"solutions_architect_email": "string",
		"solutions_architect_name": "string",
		"vendor_contact_name": "string",
		"vendor_contact_email": "string",
		"vendor_display_name": "string",
		"deleted": "string",
		"vendor_type": "string",
		"epoch": "bigint"
	},
	"dim_user_catalog": {
		"user_key": "string",
		"account_key": "int",
		"security_account_id": "int",
		"user_first_name": "string",
		"user_last_name": "string",
		"email": "string",
		"username": "string",
		"last_login_status": "string",
		"last_successful_login_date": "timestamp",
		"last_login_host_success": "boolean",
		"last_login_host_failed": "boolean",
		"login_account_state": "string",
		"login_account_status": "string",
		"rsa_token_status": "string",
		"teams_list": "string",
		"login_account_type": "string",
		"epoch": "bigint"
	},
	"dim_proxy_catalog": {
		"proxy_key": "int",
		"login_account_id": "int",
		"proxy_account_id": "int",
		"proxy_account_name": "string",
		"first_name": "string",
		"last_name": "string",
		"email_address": "string",
		"user_name": "string",
		"epoch": "bigint"
	},
	"dim_app_team_catalog": {
		"team_name": "string",
		"app_key": "string",
		"security_account_id": "string",
		"epoch": "int"
	},
	"dim_app_tag_catalog": {
		"id": "int",
		"tag": "string",
		"app_key": "string",
		"security_account_id": "int",
		"epoch": "bigint"
	},
	"dim_cwe_catalog": {
		"id": "int",
		"name": "string",
		"category_id": "int",
		"severity": "int",
		"description": "string",
		"remediation_effort": "int",
		"owasp_04": "string",
		"owasp_07": "string",
		"owasp_10": "string",
		"owasp_13": "string",
		"owasp_text": "string",
		"owasp": "int",
		"sans_top_25": "int",
		"cert_c": "int",
		"cert_cpp": "int",
		"cert_java": "int",
		"wasc_2": "string",
		"owasp_mobile": "int",
		"epoch": "bigint"
	},
	"dim_app_catalog": {
		"app_key": "string",
		"account_key": "string",
		"app_id": "int",
		"application_name": "string",
		"business_unit": "string",
		"application_state": "string",
		"business_owner_name": "string",
		"business_owner_email": "string",
		"application_custom1": "string",
		"application_custom2": "string",
		"application_custom3": "string",
		"application_custom4": "string",
		"application_custom5": "string",
		"application_custom6": "string",
		"application_custom7": "string",
		"application_custom8": "string",
		"application_custom9": "string",
		"application_custom10": "string",
		"application_custom11": "string",
		"application_custom12": "string",
		"application_custom13": "string",
		"application_custom14": "string",
		"application_custom15": "string",
		"application_custom16": "string",
		"application_custom17": "string",
		"application_custom18": "string",
		"application_custom19": "string",
		"application_custom20": "string",
		"application_custom21": "string",
		"application_custom22": "string",
		"application_custom23": "string",
		"application_custom24": "string",
		"application_custom25": "string",
		"current_policy_id": "int",
		"policy_eval_guid": "string",
		"policy_group_id": "int",
		"policy_status": "string",
		"archer_app_name": "string",
		"business_criticality_id": "int",
		"created_date": "timestamp",
		"modified_date": "timestamp",
		"epoch": "bigint"
	},
	"dim_cve_catalog": {
		"id": "int",
		"name": "string",
		"cvss": "double",
		"epoch": "bigint"
	},
	"fact_findings_catalog": {
		"finding_id": "bigint",
		"finding_guid": "string",
		"last_scan_id": "int",
		"application_id": "int",
		"application_guid": "string",
		"description": "string",
		"severity": "int",
		"scan_type": "string",
		"manual_resolution_status": "string",
		"manual_resolution": "string",
		"mitigation_review_status": "string",
		"cwe_id": "int",
		"cve_id": "int",
		"count": "int",
		"exploitability": "int",
		"accepted_manual_resolution": "string",
		"accepted_manual_resolution_date": "string",
		"issue_id": "bigint",
		"finding_new": "int",
		"matched_scan_finding": "string",
		"finding_latest_scan_finding": "string",
		"cvss": "double",
		"context": "string",
		"status": "string",
		"finding_source": "string",
		"status_new": "int",
		"reopened": "int",
		"resolution": "string",
		"resolution_status": "string",
		"found_date": "timestamp",
		"resolved_date": "timestamp",
		"reopened_date": "timestamp",
		"modified_date": "timestamp",
		"status_latest_scan_finding": "string",
		"latest_scan": "int",
		"epoch": "bigint"
	},
	"fact_scan_catalog": {
		"id": "int",
		"guid": "string",
		"scan_id": "string",
		"application_guid": "string",
		"application_id": "int",
		"context": "string",
		"sandbox_id": "int",
		"scan_type": "string",
		"scan_status": "string",
		"imported_date": "timestamp",
		"published_date": "timestamp",
		"app_instance_guid": "string",
		"epoch": "bigint"
	},
	"app_tag_catalog": {
		"id": "int",
		"application_id": "int",
		"tag": "string",
		"created": "timestamp"
	},
	"app_team_catalog": {
		"app_team_id": "int",
		"app_id": "int",
		"team_id": "int",
		"created": "timestamp"
	},
	"application_catalog": {
		"app_id": "int",
		"guid": "string",
		"app_name": "string",
		"organization_id": "int",
		"created": "timestamp",
		"policy_group_id": "int",
		"deleted": "int",
		"business_unit_id": "int",
		"archer_app_name": "string",
		"enterprise_id": "int",
		"business_criticality_id": "int",
		"business_owner_name": "string",
		"business_owner_email": "string",
		"modified": "timestamp",
		"next_day_scheduling_enabled": "int",
		"keep_binary_days": "int",
		"description": "string",
		"nextday_consultation_allowed": "int"
	},
	"sandbox_catalog": {
		"sandbox_id": "int",
		"guid": "string",
		"sandbox_name": "string",
		"app_id": "int",
		"created": "timestamp",
		"creator_login_id": "int",
		"deleted": "int",
		"owner_guid": "string",
		"owner_username": "string",
		"organization_id": "int",
		"modified": "timestamp"
	},
	"annotation_catalog": {
		"id": "bigint",
		"guid": "string",
		"finding_id": "int",
		"comment": "string",
		"action": "string",
		"created": "timestamp",
		"user_name": "string",
		"organization_name": "string",
		"organization_id": "int",
		"is_internal_org": "int",
		"group_id": "string",
		"technique": "string",
		"specifics": "string",
		"risk": "string",
		"verification": "string"
	},
	"cve_catalog": {
		"id": "int",
		"name": "string",
		"cvss": "double"
	},
	"cwe_catalog": {
		"id": "int",
		"name": "string",
		"category_id": "int",
		"severity": "int",
		"description": "string",
		"remediation_effort": "int",
		"owasp_04": "string",
		"owasp_07": "string",
		"owasp_10": "string",
		"owasp_13": "string",
		"owasp_text": "string",
		"owasp": "int",
		"sans_top_25": "int",
		"cert_c": "int",
		"cert_cpp": "int",
		"cert_java": "int",
		"wasc_2": "string",
		"owasp_mobile": "int"
	},
	"finding_catalog": {
		"id": "int",
		"guid": "string",
		"last_scan_id": "int",
		"application_id": "int",
		"application_guid": "string",
		"description": "string",
		"severity": "int",
		"scan_type": "string",
		"manual_resolution_status": "string",
		"manual_resolution": "string",
		"mitigation_review_status": "string",
		"cwe_id": "int",
		"cve_id": "int",
		"count": "int",
		"exploitability": "int",
		"accepted_manual_resolution": "string",
		"accepted_manual_resolution_date": "string",
		"issue_id": "int",
		"new": "int",
		"matched_scan_finding": "string",
		"latest_scan_finding": "string",
		"cvss": "double",
		"modified_date": "timestamp"
	},
	"scan_catalog": {
		"id": "int",
		"guid": "string",
		"scan_id": "string",
		"application_guid": "string",
		"application_id": "int",
		"context": "string",
		"sandbox_id": "int",
		"scan_type": "string",
		"scan_status": "string",
		"imported_date": "timestamp",
		"published_date": "timestamp",
		"app_instance_guid": "string",
		"max_retries": "int",
		"import_start_date": "timestamp",
		"modified_date": "timestamp"
	},
	"state_change_catalog": {
		"id": "string",
		"finding_id": "int",
		"context": "string",
		"status": "string",
		"resolution": "string",
		"date": "timestamp",
		"reason": "string",
		"scan_guid": "string",
		"scan_id": "int"
	},
	"status_catalog": {
		"id": "string",
		"finding_id": "int",
		"context": "string",
		"status": "string",
		"finding_source": "string",
		"new": "int",
		"reopened": "int",
		"resolution": "string",
		"resolution_status": "string",
		"found_date": "timestamp",
		"resolved_date": "timestamp",
		"reopened_date": "timestamp",
		"application_id": "int",
		"modified_date": "timestamp",
		"latest_scan_finding": "string",
		"latest_scan": "int"
	},
	"organization_catalog": {
		"org_id": "string",
		"api_credential_ttl": "int",
		"insert_ts": "string",
		"is_internal": "int",
		"login_enabled": "int",
		"modify_ts": "string",
		"org_legacy_id": "int",
		"org_name": "string",
		"org_status": "string",
		"org_type": "string",
		"sales_lead_email": "string",
		"sales_lead_name": "string",
		"saml_enabled": "int",
		"send_api_cred_notification": "string",
		"solutions_architect_email": "string",
		"solutions_architect_name": "string",
		"vendor_contact_email": "string",
		"vendor_contact_job_title": "string",
		"vendor_contact_name": "string",
		"vendor_display_name": "string",
		"vendor_type": "string",
		"deleted": "int"
	},
	"user_catalog": {
		"user_id": "string",
		"active": "int",
		"agree_terms": "int",
		"allow_multiple_sessions": "int",
		"allowed_ip_addresses": "string",
		"deleted": "int",
		"email_address": "string",
		"first_name": "string",
		"insert_ts": "timestamp",
		"ip_restricted": "int",
		"last_host": "string",
		"last_login": "timestamp",
		"last_name": "string",
		"login_answer": "string",
		"login_question": "string",
		"modify_ts": "timestamp",
		"password": "string",
		"password_ts": "timestamp",
		"phone": "string",
		"pin_required": "int",
		"saml_subject": "string",
		"saml_user": "int",
		"show_welcome": "int",
		"title": "string",
		"user_legacy_id": "int",
		"user_name": "string",
		"user_type": "string",
		"org_id": "string",
		"login_failure_count": "int",
		"password_hash_ver": "string",
		"password_salt": "string",
		"login_answer_hash_ver": "string",
		"login_answer_salt": "string",
		"login_answer_failure_count": "string"
	},
	"policy_catalog": {
		"guid": "string",
		"id": "int",
		"latest_policy_version_id": "int",
		"organization_id": "int",
		"deleted": "int",
		"modified_date": "timestamp",
		"last_action_by_rest_api": "int"
	},
	"policy_eval_catalog": {
		"id": "int",
		"guid": "string",
		"resource_id": "int",
		"policy_version_id": "int",
		"status": "string",
		"created": "timestamp",
		"conversation_id": "string",
		"modified": "timestamp",
		"retry_attempts": "int"
	}
}