launch_status failed=1 1581597283000000000
launch_status broken=0 1581597283000000000
launch_status passed=32 1581597283000000000
launch_status skipped=0 1581597283000000000
launch_status unknown=0 1581597283000000000
launch_time duration=232338 1581597283000000000
launch_time min_duration=2983 1581597283000000000
launch_time max_duration=27741 1581597283000000000
launch_time sum_duration=231765 1581597283000000000
launch_problems product_defects=1 1581597283000000000
launch_retries retries=0 1581597283000000000
launch_retries run=33 1581597283000000000
