[ {
  "uid" : "f7eda9a0be24e99c",
  "name" : "test_count_validation[vosp/raw/intake/2020-01-02_15:03:32.143384/customer/]",
  "time" : {
    "start" : 1578071349854,
    "stop" : 1578071351346,
    "duration" : 1492
  },
  "status" : "failed",
  "severity" : "critical"
}, {
  "uid" : "94a155ecdb5bc06a",
  "name" : "test_count_validation[vosp/raw/intake/2020-01-02_15:03:32.143384/orders/]",
  "time" : {
    "start" : 1578071351450,
    "stop" : 1578071351829,
    "duration" : 379
  },
  "status" : "failed",
  "severity" : "critical"
} ]