{
  "reportName" : "Allure Report",
  "testRuns" : [ ],
  "statistic" : {
    "failed" : 2,
    "broken" : 0,
    "skipped" : 0,
    "passed" : 0,
    "unknown" : 0,
    "total" : 2
  },
  "time" : {
    "start" : 1578071349854,
    "stop" : 1578071351829,
    "duration" : 1975,
    "minDuration" : 379,
    "maxDuration" : 1492,
    "sumDuration" : 1871
  }
}